
<svg width="96px" height="69px" viewBox="0 0 96 69" version="1.1" xmlns="http://www.w3.org/2000/svg" xmlns:xlink="http://www.w3.org/1999/xlink">
    <g id="Symbols" stroke="none" stroke-width="1" fill="none" fill-rule="evenodd">
        <g id="Color/Hair/Black" fill="#2C1B18">
            <rect id="Color" x="0" y="0" width="96" height="69"></rect>
        </g>
    </g>
</svg>