
<svg width="128px" height="81px" viewBox="0 0 128 81" version="1.1" xmlns="http://www.w3.org/2000/svg" xmlns:xlink="http://www.w3.org/1999/xlink">
    <defs>
        <path d="M196.000348,38.6320038 L196,110 L68,110 L67.999672,38.6319925 C75.8495147,34.0910485 84.6362412,30.9895697 93.9989132,29.6884945 L93.999,73.9993435 L170,73.9993435 L170.001087,29.6884945 C179.363767,30.9895707 188.1505,34.0910536 196.000348,38.6320038 Z" id="path-d7l2o7us6i-1"></path>
    </defs>
    <g id="Symbols" stroke="none" stroke-width="1" fill="none" fill-rule="evenodd">
        <g id="Clothing/Overall" transform="translate(-68.000000, -29.000000)">
            <mask id="mask-d7l2o7us6i-2" fill="white">
                <use xlink:href="#path-d7l2o7us6i-1"></use>
            </mask>
            <use id="Overall" fill="#B7C1DB" xlink:href="#path-d7l2o7us6i-1"></use>
            <g id="Group" mask="url(#mask-d7l2o7us6i-2)" fill="#E6E6E6">
                <g id="↳-Color-Fabric">
                    <rect id="🖍Color" x="0" y="0" width="264" height="110"></rect>
                </g>
            </g>
            <circle id="Button" fill="#F4F4F4" cx="81" cy="83" r="5"></circle>
            <circle id="Button" fill="#F4F4F4" cx="183" cy="83" r="5"></circle>
        </g>
    </g>
</svg>