
<svg width="200px" height="106px" viewBox="0 0 200 106" version="1.1" xmlns="http://www.w3.org/2000/svg" xmlns:xlink="http://www.w3.org/1999/xlink">
    <defs>
        <path d="M99,30.3476251 C99,42.2107177 113.998461,51.8276544 132.5,51.8276544 C151.001539,51.8276544 166,42.2107177 166,30.3476251 C166,29.9947569 165.98673,29.643876 165.960492,29.2951765 C202.936371,32.3248899 232,63.2942196 232,101.051724 L232,110 L32,110 L32,101.051724 C32,62.952169 61.5925972,31.764336 99.0465686,29.2194474 C99.0151943,29.59473 99,29.9700398 99,30.3476251 Z" id="path-_j2yq2h_oh-1"></path>
    </defs>
    <g id="Symbols" stroke="none" stroke-width="1" fill="none" fill-rule="evenodd">
        <g id="Clothing/Shirt-Crew-Neck" transform="translate(-32.000000, -4.000000)">
            <mask id="mask-_j2yq2h_oh-2" fill="white">
                <use xlink:href="#path-_j2yq2h_oh-1"></use>
            </mask>
            <use id="Clothes" fill="#E6E6E6" xlink:href="#path-_j2yq2h_oh-1"></use>
            <g id="Group" mask="url(#mask-_j2yq2h_oh-2)" fill="#E6E6E6">
                <g id="↳-Color-Fabric">
                    <rect id="🖍Color" x="0" y="0" width="264" height="110"></rect>
                </g>
            </g>
            <g id="Shadowy" opacity="0.599999964" mask="url(#mask-_j2yq2h_oh-2)" fill="#000000" fill-opacity="0.16">
                <g transform="translate(92.000000, 4.000000)" id="Hola-👋🏼">
                    <ellipse cx="40.5" cy="27.8476251" rx="39.6351047" ry="26.9138272"></ellipse>
                </g>
            </g>
        </g>
    </g>
</svg>