
<svg width="200px" height="81px" viewBox="0 0 200 81" version="1.1" xmlns="http://www.w3.org/2000/svg" xmlns:xlink="http://www.w3.org/1999/xlink">
    <defs>
        <path d="M232,101.051724 L232,110 L32,110 L32,101.051724 C32,65.1384292 58.2938256,35.3663869 92.6806879,29.9363855 C93.5844961,35.0070695 96.1171239,39.8245023 100.236125,43.5389794 L100.236125,43.5389794 L129.321203,69.7676333 C130.843316,71.1402598 133.156684,71.1402598 134.678797,69.7676333 L134.678797,69.7676333 L163.763875,43.5389794 C164.189462,43.1551884 164.601167,42.7562772 164.998197,42.3430127 C168.413626,38.7879269 170.516642,34.4534098 171.319249,29.9385703 C205.706684,35.3669637 232,65.1387771 232,101.051724 Z" id="path-qg8ydv7k17-1"></path>
    </defs>
    <g id="Symbols" stroke="none" stroke-width="1" fill="none" fill-rule="evenodd">
        <g id="Clothing/Shirt-V-Neck" transform="translate(-32.000000, -29.000000)">
            <mask id="mask-qg8ydv7k17-2" fill="white">
                <use xlink:href="#path-qg8ydv7k17-1"></use>
            </mask>
            <use id="Clothes" fill="#E6E6E6" xlink:href="#path-qg8ydv7k17-1"></use>
            <g id="Group" mask="url(#mask-qg8ydv7k17-2)" fill="#E6E6E6">
                <g id="↳-Color-Fabric">
                    <rect id="🖍Color" x="0" y="0" width="264" height="110"></rect>
                </g>
            </g>
        </g>
    </g>
</svg>