
<svg width="216px" height="110px" viewBox="0 0 216 110" version="1.1" xmlns="http://www.w3.org/2000/svg" xmlns:xlink="http://www.w3.org/1999/xlink">
    <g id="Symbols" stroke="none" stroke-width="1" fill="none" fill-rule="evenodd">
        <g id="Color/Palette/Blue-03" fill="#25557C">
            <rect id="🖍Color" x="0" y="0" width="216" height="110"></rect>
        </g>
    </g>
</svg>